{
  "arch": "aarch64",
  "cpu": "cortex-a53",
  "data-layout": "e-m:e-i8:8:32-i16:16:32-i64:64-i128:128-n32:64-S128",
  "disable-redzone": true,
  "features": "+strict-align,+v8a,+neon,+fp-armv8,+aes,+crc,+sha2,+a53,+fix-cortex-a53-835769",
  "is-builtin": false,
  "linker": "rust-lld",
  "linker-flavor": "ld.lld",
  "llvm-target": "aarch64-unknown-none",
  "max-atomic-width": 64,
  "panic-strategy": "abort",
  "relocation-model": "static",
  "supported-sanitizers": [
    "kcfi",
    "kernel-address"
  ],
  "target-pointer-width": "64"
}
